{
    "name": "Ubuntu-with-GPU",
    "image": "nvidia/cuda:12.3.1-base-ubuntu22.04",
    "runArgs": ["--gpus", "all",
        "-v", "uv_cache:/root/.cache/uv",
        "-v", "whisper_cache:/root/.cache/whisper",
        "-v", "apt_archives:/var/cache/apt/archives",
        "-v", "/Windows_Home:/Windows_Home",
    ],
    "features": {
        "ghcr.io/devcontainers/features/git:1": {}, // for cloning +git packages
        "ghcr.io/devcontainers/features/python:1": {
            // default is pretty hefty
            "toolsToInstall": "uv"
        },
        "ghcr.io/devcontainers-contrib/features/ffmpeg-apt-get:1": {},
        "ghcr.io/devcontainers-contrib/features/isort:2": {},
        "ghcr.io/devcontainers-contrib/features/ruff:1": {}
    }
}
